module bitbucket.org/TIKI-Institut/ai-common-go/v2

go 1.21

require (
	github.com/coreos/go-oidc v2.0.0+incompatible
	github.com/eclipse/paho.mqtt.golang v1.2.0
	github.com/gin-contrib/logger v0.2.0
	github.com/gin-contrib/requestid v0.0.1
	github.com/gin-gonic/gin v1.9.1
	github.com/k8snetworkplumbingwg/network-attachment-definition-client v1.1.0
	github.com/lithammer/shortuuid v3.0.0+incompatible
	github.com/pkg/errors v0.9.1
	github.com/rs/zerolog v1.23.0
	github.com/spf13/afero v1.2.2
	github.com/spf13/cobra v1.6.0
	github.com/spf13/viper v1.6.1
	github.com/stretchr/testify v1.8.3
	golang.org/x/oauth2 v0.8.0
	gopkg.in/ini.v1 v1.51.0
	gopkg.in/yaml.v2 v2.4.0
	k8s.io/api v0.28.2
	k8s.io/apimachinery v0.28.2
	k8s.io/client-go v0.28.2
	k8s.io/utils v0.0.0-20230726121419-3b25d923346b
)

require (
	github.com/bytedance/sonic v1.9.1 // indirect
	github.com/chenzhuoyu/base64x v0.0.0-20221115062448-fe3a3abad311 // indirect
	github.com/davecgh/go-spew v1.1.1 // indirect
	github.com/emicklei/go-restful/v3 v3.9.0 // indirect
	github.com/evanphx/json-patch v4.12.0+incompatible // indirect
	github.com/fsnotify/fsnotify v1.4.9 // indirect
	github.com/gabriel-vasile/mimetype v1.4.2 // indirect
	github.com/gin-contrib/sse v0.1.0 // indirect
	github.com/go-logr/logr v1.2.4 // indirect
	github.com/go-openapi/jsonpointer v0.19.6 // indirect
	github.com/go-openapi/jsonreference v0.20.2 // indirect
	github.com/go-openapi/swag v0.22.3 // indirect
	github.com/go-playground/locales v0.14.1 // indirect
	github.com/go-playground/universal-translator v0.18.1 // indirect
	github.com/go-playground/validator/v10 v10.14.0 // indirect
	github.com/goccy/go-json v0.10.2 // indirect
	github.com/gogo/protobuf v1.3.2 // indirect
	github.com/golang/protobuf v1.5.3 // indirect
	github.com/google/gnostic-models v0.6.8 // indirect
	github.com/google/go-cmp v0.5.9 // indirect
	github.com/google/gofuzz v1.2.0 // indirect
	github.com/google/uuid v1.3.0 // indirect
	github.com/hashicorp/hcl v1.0.0 // indirect
	github.com/imdario/mergo v0.3.6 // indirect
	github.com/inconshreveable/mousetrap v1.0.1 // indirect
	github.com/josharian/intern v1.0.0 // indirect
	github.com/json-iterator/go v1.1.12 // indirect
	github.com/klauspost/cpuid/v2 v2.2.4 // indirect
	github.com/leodido/go-urn v1.2.4 // indirect
	github.com/magiconair/properties v1.8.1 // indirect
	github.com/mailru/easyjson v0.7.7 // indirect
	github.com/mattn/go-isatty v0.0.19 // indirect
	github.com/mitchellh/mapstructure v1.1.2 // indirect
	github.com/moby/spdystream v0.2.0 // indirect
	github.com/modern-go/concurrent v0.0.0-20180306012644-bacd9c7ef1dd // indirect
	github.com/modern-go/reflect2 v1.0.2 // indirect
	github.com/munnerz/goautoneg v0.0.0-20191010083416-a7dc8b61c822 // indirect
	github.com/pelletier/go-toml v1.2.0 // indirect
	github.com/pelletier/go-toml/v2 v2.0.8 // indirect
	github.com/pmezard/go-difflib v1.0.0 // indirect
	github.com/pquerna/cachecontrol v0.1.0 // indirect
	github.com/spf13/cast v1.3.0 // indirect
	github.com/spf13/jwalterweatherman v1.0.0 // indirect
	github.com/spf13/pflag v1.0.5 // indirect
	github.com/subosito/gotenv v1.2.0 // indirect
	github.com/twitchyliquid64/golang-asm v0.15.1 // indirect
	github.com/ugorji/go/codec v1.2.11 // indirect
	golang.org/x/arch v0.3.0 // indirect
	golang.org/x/crypto v0.14.0 // indirect
	golang.org/x/net v0.17.0 // indirect
	golang.org/x/sys v0.13.0 // indirect
	golang.org/x/term v0.13.0 // indirect
	golang.org/x/text v0.13.0 // indirect
	golang.org/x/time v0.3.0 // indirect
	google.golang.org/appengine v1.6.7 // indirect
	google.golang.org/protobuf v1.31.0 // indirect
	gopkg.in/inf.v0 v0.9.1 // indirect
	gopkg.in/square/go-jose.v2 v2.6.0 // indirect
	gopkg.in/yaml.v3 v3.0.1 // indirect
	k8s.io/klog/v2 v2.100.1 // indirect
	k8s.io/kube-openapi v0.0.0-20230717233707-2695361300d9 // indirect
	sigs.k8s.io/json v0.0.0-20221116044647-bc3834ca7abd // indirect
	sigs.k8s.io/structured-merge-diff/v4 v4.2.3 // indirect
	sigs.k8s.io/yaml v1.3.0 // indirect
)

//The tag "v.0.28.2-dynamic-fake-client-patch-fix"
replace k8s.io/client-go => github.com/TIKI-Institut/client-go v0.0.0-20231127082012-fcd4fb05eafd
